%YAML 1.1
%TAG !u! tag:unity3d.com,2011:
--- !u!1045 &1
EditorBuildSettings:
  m_ObjectHideFlags: 0
  serializedVersion: 2
  m_Scenes:
  - enabled: 1
    path: Assets/_Scenes/Brad's Scene.unity
    guid: 2a5c82d18f2496040a91bd1fdf596989
  - enabled: 1
    path: Assets/_Scenes/Desert Level.unity
    guid: 3e9f013d84bb4724fb556bc0774ec235
  - enabled: 1
    path: Assets/_Scenes/Road Level.unity
    guid: c4eb02fa9f4e4f14884230ef3e9968cb
  - enabled: 1
    path: Assets/_Scenes/GameOver.unity
    guid: 3094509f2b0a5ee4592b44a34f80d19e
